<?xml version="1.0" encoding="iso-8859-1"?>
<!-- Generator: Adobe Illustrator 16.0.0, SVG Export Plug-In . SVG Version: 6.00 Build 0)  -->
<!DOCTYPE svg PUBLIC "-//W3C//DTD SVG 1.1//EN" "http://www.w3.org/Graphics/SVG/1.1/DTD/svg11.dtd">
<svg xmlns="http://www.w3.org/2000/svg" xmlns:xlink="http://www.w3.org/1999/xlink" version="1.1" id="Capa_1" x="0px" y="0px" width="512px" height="512px" viewBox="0 0 229.153 229.153" style="enable-background:new 0 0 229.153 229.153;" xml:space="preserve">
<g>
	<path d="M92.356,223.549c7.41,7.5,23.914,5.014,25.691-6.779c11.056-73.217,66.378-134.985,108.243-193.189   C237.898,7.452,211.207-7.87,199.75,8.067C161.493,61.249,113.274,117.21,94.41,181.744   c-21.557-22.031-43.201-43.853-67.379-63.212c-15.312-12.265-37.215,9.343-21.738,21.737   C36.794,165.501,64.017,194.924,92.356,223.549z" fill="#8ddcbb"/>
</g>
<g>
</g>
<g>
</g>
<g>
</g>
<g>
</g>
<g>
</g>
<g>
</g>
<g>
</g>
<g>
</g>
<g>
</g>
<g>
</g>
<g>
</g>
<g>
</g>
<g>
</g>
<g>
</g>
<g>
</g>
</svg>
